module gitlab.com/nopaystation_repos/get-pkg-account

go 1.15

require (
	github.com/fsnotify/fsnotify v1.4.9 // indirect
	github.com/klauspost/compress v1.11.13 // indirect
	github.com/magiconair/properties v1.8.5 // indirect
	github.com/mitchellh/go-homedir v1.1.0
	github.com/mitchellh/mapstructure v1.4.1 // indirect
	github.com/pelletier/go-toml v1.9.0 // indirect
	github.com/spf13/afero v1.6.0 // indirect
	github.com/spf13/cast v1.3.1 // indirect
	github.com/spf13/cobra v1.1.3
	github.com/spf13/jwalterweatherman v1.1.0 // indirect
	github.com/spf13/viper v1.7.1
	github.com/stretchr/testify v1.6.1 // indirect
	github.com/valyala/fasthttp v1.23.0
	golang.org/x/sys v0.0.0-20210414055047-fe65e336abe0 // indirect
	golang.org/x/text v0.3.6 // indirect
	gopkg.in/ini.v1 v1.62.0 // indirect
)
